,time,timeSec,ambient_temperature,heatsink_temperature,power_instant_main
1,2020-02-11 17:16:09.472000+00:00,1581437769,17.9304008483887,52.25,323.792022705078
2,2020-02-11 17:16:19.466000+00:00,1581437779,17.9304008483887,52.25,323.792022705078
3,2020-02-11 17:16:29.469000+00:00,1581437789,17.842399597168,52.4375,311.799255371094
4,2020-02-11 17:16:39.466000+00:00,1581437799,17.842399597168,52.4375,311.799255371094
5,2020-02-11 17:16:49.466000+00:00,1581437809,17.842399597168,52.4375,311.799255371094
