"","changepoint_prior_scale","seasonality_prior_scale","fourier_order","mean","sd","seasonality_prior_scale_label"
"1","0.01",0.01,"3",0.0266400071228505,0.0252084489745966,"Seasonality Prior Scale =  0.01"
"2","0.01",0.01,"5",0.0272700240760656,0.024158315149784,"Seasonality Prior Scale =  0.01"
"3","0.1",0.01,"3",0.0273705286367515,0.026043645912924,"Seasonality Prior Scale =  0.01"
"4","1",0.01,"3",0.0277729669931887,0.0263595363730342,"Seasonality Prior Scale =  0.01"
"5","0.01",0.1,"5",0.0289032396585162,0.02659378107419,"Seasonality Prior Scale =  0.1"
"6","0.01",10,"5",0.0289423415729001,0.026562595625507,"Seasonality Prior Scale =  10"
"7","0.1",0.01,"5",0.0292560333508271,0.0269239189123724,"Seasonality Prior Scale =  0.01"
"8","0.01",1,"5",0.0292903937570245,0.0275276857541481,"Seasonality Prior Scale =  1"
"9","0.01",10,"3",0.0300016393342836,0.0301425682865667,"Seasonality Prior Scale =  10"
"10","1",0.01,"5",0.0300281393724831,0.0278604610229764,"Seasonality Prior Scale =  0.01"
"11","0.01",0.1,"3",0.0300777009181706,0.0303051805096542,"Seasonality Prior Scale =  0.1"
"12","0.1",0.1,"5",0.0308137555038175,0.0290920819815062,"Seasonality Prior Scale =  0.1"
"13","0.01",1,"3",0.0308529332071459,0.032511411114918,"Seasonality Prior Scale =  1"
"14","0.1",10,"5",0.0311170574487314,0.0298349276270379,"Seasonality Prior Scale =  10"
"15","0.01",0.01,"10",0.0311201909411285,0.028928625201853,"Seasonality Prior Scale =  0.01"
"16","0.1",0.1,"3",0.0311261161879634,0.0316560662639744,"Seasonality Prior Scale =  0.1"
"17","0.1",1,"5",0.0315747282725314,0.0304938198708593,"Seasonality Prior Scale =  1"
"18","0.1",0.01,"10",0.031609304971375,0.0291172463670357,"Seasonality Prior Scale =  0.01"
"19","0.1",1,"3",0.0317097058365883,0.0329667359866394,"Seasonality Prior Scale =  1"
"20","0.1",10,"3",0.032075551506056,0.0332311170769102,"Seasonality Prior Scale =  10"
"21","1",0.1,"5",0.0324229637291047,0.0302039351400288,"Seasonality Prior Scale =  0.1"
"22","1",0.01,"10",0.0327327694268826,0.0298913145966596,"Seasonality Prior Scale =  0.01"
"23","1",0.1,"3",0.0327386290096555,0.0315197782875132,"Seasonality Prior Scale =  0.1"
"24","1",1,"3",0.0334880199393796,0.0340262012070001,"Seasonality Prior Scale =  1"
"25","1",10,"3",0.0336046094328112,0.0338269685461504,"Seasonality Prior Scale =  10"
"26","1",1,"5",0.033728101141276,0.0331811120191246,"Seasonality Prior Scale =  1"
"27","1",10,"5",0.0345431670148774,0.0337277483786157,"Seasonality Prior Scale =  10"
"28","0.01",0.1,"10",0.0385824524316893,0.0421491357842259,"Seasonality Prior Scale =  0.1"
"29","0.1",0.1,"10",0.038825922300379,0.040917822212715,"Seasonality Prior Scale =  0.1"
"30","1",0.1,"10",0.0396801064800235,0.0423944150198697,"Seasonality Prior Scale =  0.1"
"31","0.01",10,"10",0.0416548942246403,0.0474597697179086,"Seasonality Prior Scale =  10"
"32","0.01",1,"10",0.0416864756240786,0.047747434333737,"Seasonality Prior Scale =  1"
"33","0.1",1,"10",0.0437888100927314,0.0490425621293054,"Seasonality Prior Scale =  1"
"34","1",1,"10",0.0438574988313072,0.0502940912349957,"Seasonality Prior Scale =  1"
"35","0.1",10,"10",0.04440622463031,0.0504819299147051,"Seasonality Prior Scale =  10"
"36","0.01",0.01,"1",0.0448802618401056,0.0590798307121863,"Seasonality Prior Scale =  0.01"
"37","0.1",0.01,"1",0.0465575548095352,0.0598687959269453,"Seasonality Prior Scale =  0.01"
"38","1",10,"10",0.0466757992257654,0.0576988450277254,"Seasonality Prior Scale =  10"
"39","1",0.01,"1",0.0471686834053023,0.0632888443857735,"Seasonality Prior Scale =  0.01"
"40","0.01",1,"1",0.0473100584207208,0.0634870618849009,"Seasonality Prior Scale =  1"
"41","0.01",0.1,"1",0.0475763967463946,0.0645904822088881,"Seasonality Prior Scale =  0.1"
"42","0.01",10,"1",0.0476504109855691,0.0643569882702238,"Seasonality Prior Scale =  10"
"43","0.1",10,"1",0.0496402019950651,0.0652500103063461,"Seasonality Prior Scale =  10"
"44","0.1",1,"1",0.0498354626996031,0.0650331932284248,"Seasonality Prior Scale =  1"
"45","0.1",0.1,"1",0.0500860898935521,0.0670028503003849,"Seasonality Prior Scale =  0.1"
"46","1",0.1,"1",0.05015513725666,0.0653853370027313,"Seasonality Prior Scale =  0.1"
"47","1",1,"1",0.0506544730741688,0.065598980131635,"Seasonality Prior Scale =  1"
"48","1",10,"1",0.0511109764678277,0.0678872502837757,"Seasonality Prior Scale =  10"
