"","changepoint_prior_scale","seasonality_prior_scale","fourier_order","mean","sd","seasonality_prior_scale_label"
"1","0.01",0.01,"3",0.916693782997918,1.03690747044813,"Seasonality Prior Scale =  0.01"
"2","0.01",0.01,"5",0.979192780553483,1.13530541061761,"Seasonality Prior Scale =  0.01"
"3","0.1",0.01,"3",0.983937339985414,1.11053404014267,"Seasonality Prior Scale =  0.01"
"4","0.01",0.01,"10",0.98824086043601,1.04488060617212,"Seasonality Prior Scale =  0.01"
"5","1",0.01,"3",0.999248401083871,1.12110651106799,"Seasonality Prior Scale =  0.01"
"6","0.01",10,"5",1.05562358143477,1.28625988062891,"Seasonality Prior Scale =  10"
"7","0.1",0.01,"10",1.08060333358789,1.13801579682186,"Seasonality Prior Scale =  0.01"
"8","0.01",0.1,"5",1.08374092338634,1.34105303897016,"Seasonality Prior Scale =  0.1"
"9","0.01",1,"5",1.12470301140434,1.43362455197168,"Seasonality Prior Scale =  1"
"10","1",0.01,"10",1.12601862198304,1.16713498014829,"Seasonality Prior Scale =  0.01"
"11","0.1",0.01,"5",1.13092678899473,1.48964996723051,"Seasonality Prior Scale =  0.01"
"12","0.01",10,"3",1.17863105358013,1.58332820584702,"Seasonality Prior Scale =  10"
"13","1",0.01,"5",1.17881598243624,1.5278113556776,"Seasonality Prior Scale =  0.01"
"14","0.01",0.1,"3",1.19935024006194,1.65786143989597,"Seasonality Prior Scale =  0.1"
"15","0.1",0.1,"5",1.22712488405246,1.64871771402916,"Seasonality Prior Scale =  0.1"
"16","0.1",10,"5",1.24276342634164,1.70557218691268,"Seasonality Prior Scale =  10"
"17","0.01",1,"3",1.27312856374277,1.97010450615104,"Seasonality Prior Scale =  1"
"18","0.1",1,"5",1.2760581420779,1.76358478593552,"Seasonality Prior Scale =  1"
"19","1",0.1,"5",1.29568113060443,1.72968426995776,"Seasonality Prior Scale =  0.1"
"20","0.1",0.1,"3",1.32295506099081,1.78970891456179,"Seasonality Prior Scale =  0.1"
"21","0.01",0.1,"10",1.33207887922834,1.72320600402998,"Seasonality Prior Scale =  0.1"
"22","1",1,"5",1.36607786573805,1.8651901677957,"Seasonality Prior Scale =  1"
"23","1",0.1,"3",1.36941146502309,1.70109138983086,"Seasonality Prior Scale =  0.1"
"24","0.1",1,"3",1.37130427667189,1.96964657229355,"Seasonality Prior Scale =  1"
"25","1",10,"5",1.38900463895007,1.84684836021984,"Seasonality Prior Scale =  10"
"26","0.1",0.1,"10",1.40526696616727,1.75212553729319,"Seasonality Prior Scale =  0.1"
"27","0.1",10,"3",1.40744545364984,2.08656175725086,"Seasonality Prior Scale =  10"
"28","1",1,"3",1.42334671265757,1.91561448885302,"Seasonality Prior Scale =  1"
"29","1",10,"3",1.43247697930913,1.91319060978827,"Seasonality Prior Scale =  10"
"30","0.01",10,"10",1.47755405594087,2.0056375305363,"Seasonality Prior Scale =  10"
"31","0.01",1,"10",1.48330404363614,2.03203289451219,"Seasonality Prior Scale =  1"
"32","1",0.1,"10",1.50092425590564,1.88543996883914,"Seasonality Prior Scale =  0.1"
"33","1",1,"10",1.60473212638569,2.12266392343021,"Seasonality Prior Scale =  1"
"34","0.1",10,"10",1.65041664165662,2.17670588684377,"Seasonality Prior Scale =  10"
"35","0.1",1,"10",1.68196414093192,2.15222717962535,"Seasonality Prior Scale =  1"
"36","1",10,"10",1.81162520835955,2.60126781066929,"Seasonality Prior Scale =  10"
"37","0.01",0.01,"1",1.85630960386865,3.15088121938843,"Seasonality Prior Scale =  0.01"
"38","1",0.01,"1",1.9563960329698,3.26704094501159,"Seasonality Prior Scale =  0.01"
"39","0.1",0.01,"1",1.97491752298779,3.42410705548455,"Seasonality Prior Scale =  0.01"
"40","0.01",1,"1",2.04892149323773,3.86707285365552,"Seasonality Prior Scale =  1"
"41","0.01",0.1,"1",2.05875522596907,3.85907537246592,"Seasonality Prior Scale =  0.1"
"42","0.01",10,"1",2.07374476591131,3.92457474442368,"Seasonality Prior Scale =  10"
"43","0.1",10,"1",2.17456609428068,4.01585046327183,"Seasonality Prior Scale =  10"
"44","0.1",0.1,"1",2.18447528587339,4.0742012174408,"Seasonality Prior Scale =  0.1"
"45","0.1",1,"1",2.20507544549483,4.13782209391656,"Seasonality Prior Scale =  1"
"46","1",0.1,"1",2.20595675159809,4.05930678813324,"Seasonality Prior Scale =  0.1"
"47","1",1,"1",2.23146495494111,4.07409776592971,"Seasonality Prior Scale =  1"
"48","1",10,"1",2.24418264071092,4.11419351987189,"Seasonality Prior Scale =  10"
