"","seasonality_prior_scale","mean_rmse","sd_rmse"
"1",0.01,0.0335338720788746,0.0385237196361328
"2",0.1,0.0375823758429939,0.0441812002013898
"3",1,0.0389813884080463,0.0462405937381293
"4",10,0.0392852394865698,0.0472978928822059
